{
    "balance": 30,
    "history": [
        {
            "32f9f4d2-e03e-11eb-9e29-a0999b1cc837": {
                "montant": 56,
                "wallet_emitter": "dffdc302-dfee-11eb-b7ce-a0999b1cc837",
                "wallet_receptor": "24e0d9a0-dfd6-11eb-9f02-a0999b1cc837"
            }
        },
        {
            "6c8404bc-e044-11eb-8fc4-a0999b1cc837": {
                "ID de la transaction": 0,
                "montant": 1,
                "wallet_emitter": "dffdc302-dfee-11eb-b7ce-a0999b1cc837",
                "wallet_receptor": "24e0d9a0-dfd6-11eb-9f02-a0999b1cc837"
            }
        },
        {
            "8b7042c8-e044-11eb-8033-a0999b1cc837": {
                "ID de la transaction": 0,
                "montant": 1,
                "wallet_emitter": "dffdc302-dfee-11eb-b7ce-a0999b1cc837",
                "wallet_receptor": "24e0d9a0-dfd6-11eb-9f02-a0999b1cc837"
            }
        },
        {
            "aa46a2a0-e044-11eb-8d56-a0999b1cc837": {
                "ID de la transaction": 0,
                "montant": 1,
                "wallet_emitter": "dffdc302-dfee-11eb-b7ce-a0999b1cc837",
                "wallet_receptor": "24e0d9a0-dfd6-11eb-9f02-a0999b1cc837"
            }
        },
        {
            "dccaa032-e044-11eb-b7ea-a0999b1cc837": {
                "ID de la transaction": 0,
                "montant": 1,
                "wallet_emitter": "dffdc302-dfee-11eb-b7ce-a0999b1cc837",
                "wallet_receptor": "24e0d9a0-dfd6-11eb-9f02-a0999b1cc837"
            }
        },
        {
            "0f2423be-e045-11eb-aa92-a0999b1cc837": {
                "ID de la transaction": 0,
                "montant": 1,
                "wallet_emitter": "dffdc302-dfee-11eb-b7ce-a0999b1cc837",
                "wallet_receptor": "24e0d9a0-dfd6-11eb-9f02-a0999b1cc837"
            }
        },
        {
            "29c0ae98-e09c-11eb-8ad0-a0999b1cc837": {
                "ID de la transaction": "",
                "montant": 1,
                "wallet_emitter": "dffdc302-dfee-11eb-b7ce-a0999b1cc837",
                "wallet_receptor": "24e0d9a0-dfd6-11eb-9f02-a0999b1cc837"
            }
        },
        {
            "3d03e998-e09c-11eb-a361-a0999b1cc837": {
                "ID de la transaction": "",
                "montant": 1,
                "wallet_emitter": "dffdc302-dfee-11eb-b7ce-a0999b1cc837",
                "wallet_receptor": "24e0d9a0-dfd6-11eb-9f02-a0999b1cc837"
            }
        },
        {
            "47de24be-e09c-11eb-8e34-a0999b1cc837": {
                "ID de la transaction": "",
                "montant": 1,
                "wallet_emitter": "dffdc302-dfee-11eb-b7ce-a0999b1cc837",
                "wallet_receptor": "24e0d9a0-dfd6-11eb-9f02-a0999b1cc837"
            }
        },
        {
            "4b9c1078-e0a8-11eb-85df-a0999b1cc837": {
                "ID de la transaction": "",
                "montant": 1,
                "wallet_emitter": "dffdc302-dfee-11eb-b7ce-a0999b1cc837",
                "wallet_receptor": "24e0d9a0-dfd6-11eb-9f02-a0999b1cc837"
            }
        },
        {
            "993ae4e4-e0a8-11eb-9671-a0999b1cc837": {
                "ID de la transaction": "",
                "montant": 1,
                "wallet_emitter": "dffdc302-dfee-11eb-b7ce-a0999b1cc837",
                "wallet_receptor": "24e0d9a0-dfd6-11eb-9f02-a0999b1cc837"
            }
        },
        {
            "e8e4d9be-e0a8-11eb-9e5a-a0999b1cc837": {
                "ID de la transaction": "",
                "montant": 1,
                "wallet_emitter": "dffdc302-dfee-11eb-b7ce-a0999b1cc837",
                "wallet_receptor": "24e0d9a0-dfd6-11eb-9f02-a0999b1cc837"
            }
        },
        {
            "264534d4-e0a9-11eb-adac-a0999b1cc837": {
                "ID de la transaction": "",
                "montant": 1,
                "wallet_emitter": "dffdc302-dfee-11eb-b7ce-a0999b1cc837",
                "wallet_receptor": "24e0d9a0-dfd6-11eb-9f02-a0999b1cc837"
            }
        },
        {
            "6b10686a-e0ac-11eb-b1d4-a0999b1cc837": {
                "ID de la transaction": "",
                "montant": 1,
                "wallet_emitter": "dffdc302-dfee-11eb-b7ce-a0999b1cc837",
                "wallet_receptor": "24e0d9a0-dfd6-11eb-9f02-a0999b1cc837"
            }
        },
        {
            "99979c44-e0ac-11eb-8b01-a0999b1cc837": {
                "ID de la transaction": "",
                "montant": 1,
                "wallet_emitter": "dffdc302-dfee-11eb-b7ce-a0999b1cc837",
                "wallet_receptor": "24e0d9a0-dfd6-11eb-9f02-a0999b1cc837"
            }
        }
    ],
    "unique_id": "dffdc302-dfee-11eb-b7ce-a0999b1cc837"
}